{
  "yudiz_1": {
    "sName": "Anuj",
    "nMobile": 9876543210,
    "sEmail": "anuj.j@yudiz.in",
    "sPassword": "0ffe1abd1a08215353c233d6e009613e95eec4253832a761af28ff37ac5a150c",
    "oNotesList": {
      "o1": {
        "sTitle": "Hashing",
        "sBody": "hashing is meant to verify that a file or piece of data has not been altered i.e, it is authentic"
      },
      "o2": {
        "sTitle": "Encryption",
        "sBody": "encryption is meant to protect data in transit"
      },
      "o3": { "sTitle": "BDA Assignment", "sBody": "08/03/2021" }
    }
  },
  "yudiz_2": {
    "sName": "Bipin",
    "nMobile": 9988776655,
    "sEmail": "bipin.c@yudiz.in",
    "sPassword": "edee29f882543b956620b26d0ee0e7e950399b1c4222f5de05e06425b4c995e9",
    "oNotesList": {
      "o1": { "sTitle": "BDA Assignment", "sBody": "08/03/2021" }
    }
  },
  "yudiz_3": {
    "sName": "Ravi Moliya",
    "nMobile": 9876543210,
    "sEmail": "ravi.m@yudiz.in",
    "sPassword": "318aee3fed8c9d040d35a7fc1fa776fb31303833aa2de885354ddf3d44d8fb69",
    "oNotesList": {}
  }
}
